Data Summarization
…
The tidy way: dplyr: count

circ %>% mutate(many_riders = daily > 1000) %>% count(many_riders, day)

# A tibble: 21 x 3
   many_riders day           n
   <lgl>       <chr>     <int>
 1 FALSE       Friday        1
 2 FALSE       Monday        5
 3 FALSE       Saturday      6
 4 FALSE       Sunday       13
 5 FALSE       Thursday      2
 6 FALSE       Tuesday       4
 7 FALSE       Wednesday     2
 8 TRUE        Friday      145
 9 TRUE        Monday      141
10 TRUE        Saturday    140
#  with 11 more rows
…
Ungroup the data

You usually want to perform operations on groups and may want to redefine the groups. The ungroup function will allow you to clear the groups from the data:

sub_circ = ungroup(sub_circ)
sub_circ

# A tibble: 1,146 x 15
   day     date   orangeBoardings orangeAlightings orangeAverage purpleBoardings
   <chr>   <chr>            <dbl>            <dbl>         <dbl>           <dbl>
 1 Monday  01/11             877             1027          952               NA
 2 Tuesday 01/12             777              815          796               NA
 3 Wednes 01/13            1203             1220         1212.              NA
 4 Thursd 01/14            1194             1233         1214.              NA
 5 Friday  01/15            1645             1643         1644               NA
 6 Saturd 01/16            1457             1524         1490.              NA
 7 Sunday  01/17             839              938          888.              NA
 8 Monday  01/18             999             1000         1000.              NA
 9 Tuesday 01/19            1023             1047         1035               NA
10 Wednes 01/20            1375             1416         1396.              NA
#  with 1,136 more rows, and 9 more variables: purpleAlightings <dbl>,
#   purpleAverage <dbl>, greenBoardings <dbl>, greenAlightings <dbl>,
#   greenAverage <dbl>, bannerBoardings <dbl>, bannerAlightings <dbl>,
#   bannerAverage <dbl>, daily <dbl>

group_by with mutate

We can use mutate instead of summarise to add the summary back in to the original data!

circ %>% 
  group_by(day) %>% 
  mutate(mean = mean(daily, na.rm = TRUE)) %>% 
  select(day, date, mean, daily)

# A tibble: 1,146 x 4
# Groups:   day [7]
   day       date        mean daily
   <chr>     <chr>      <dbl> <dbl>
 1 Monday    01/11/2010 7340.  952 
 2 Tuesday   01/12/2010 7642.  796 
 3 Wednesday 01/13/2010 7779. 1212.
 4 Thursday  01/14/2010 7639. 1214.
 5 Friday    01/15/2010 8961. 1644 
 6 Saturday  01/16/2010 6743. 1490.
 7 Sunday    01/17/2010 4531.  888.
 8 Monday    01/18/2010 7340. 1000.
 9 Tuesday   01/19/2010 7642. 1035 
10 Wednesday 01/20/2010 7779. 1396.
#  with 1,136 more rows
…
