Data I/O + Structure
…
 [1] "datetime"             "city"                 "state"               
 [4] "country"              "shape"                "duration (seconds)"  
 [7] "duration (hours/min)" "comments"             "date posted"         
[10] "latitude"             "longitude"           

Data Input

Sometimes you get weird messages when reading in data.

The problems()` function shows you any issues with the data read-in.

problems(ufo)

# A tibble: 199 x 5
     row col   expected   actual     file                               
   <int> <chr> <chr>      <chr>      <chr>                              
 1   877 <NA>  11 columns 12 columns '../data/ufo/ufo_data_complete.csv'
 2  1712 <NA>  11 columns 12 columns '../data/ufo/ufo_data_complete.csv'
 3  1814 <NA>  11 columns 12 columns '../data/ufo/ufo_data_complete.csv'
 4  2857 <NA>  11 columns 12 columns '../data/ufo/ufo_data_complete.csv'
 5  3733 <NA>  11 columns 12 columns '../data/ufo/ufo_data_complete.csv'
 6  4755 <NA>  11 columns 12 columns '../data/ufo/ufo_data_complete.csv'
 7  5388 <NA>  11 columns 12 columns '../data/ufo/ufo_data_complete.csv'
 8  5422 <NA>  11 columns 12 columns '../data/ufo/ufo_data_complete.csv'
 9  5613 <NA>  11 columns 12 columns '../data/ufo/ufo_data_complete.csv'
10  5848 <NA>  11 columns 12 columns '../data/ufo/ufo_data_complete.csv'
#  with 189 more rows
…
Missing data with the vizdat/naniar packages

miss_case_summary which rows have missing data

miss_case_summary(ufo)

# A tibble: 88,875 x 3
    case n_miss pct_miss
   <int>  <int>    <dbl>
 1   877      6     54.5
 2  1712      6     54.5
 3  5613      6     54.5
 4  7515      6     54.5
 5  7625      6     54.5
 6 10156      6     54.5
 7 16634      6     54.5
 8 18240      6     54.5
 9 19813      6     54.5
10 19908      6     54.5
#  with 88,865 more rows
…
