Data I/O, Part 1
…
class(ufo)

[1] "spec_tbl_df" "tbl_df"      "tbl"         "data.frame" 

Data Input

ufo

# A tibble: 88,875 x 11
   datetime city  state country shape `duration (seco `duration (hour comments
   <chr>    <chr> <chr> <chr>   <chr>            <dbl> <chr>            <chr>   
 1 10/10/1 san  tx    us      cyli             2700 45 minutes       This ev
 2 10/10/1 lack tx    <NA>    light             7200 1-2 hrs          1949 La
 3 10/10/1 ches <NA>  gb      circ               20 20 seconds       Green/O
 4 10/10/1 edna  tx    us      circ               20 1/2 hour         My olde
 5 10/10/1 kane hi    us      light              900 15 minutes       AS a Ma
 6 10/10/1 bris tn    us      sphe              300 5 minutes        My fath
 7 10/10/1 pena <NA>  gb      circ              180 about 3 mins     penarth
 8 10/10/1 norw ct    us      disk              1200 20 minutes       A brigh
 9 10/10/1 pell al    us      disk               180 3  minutes       Strobe 
10 10/10/1 live fl    us      disk               120 several minutes  Saucer 
#  with 88,865 more rows, and 3 more variables: `date posted` <chr>,
#   latitude <chr>, longitude <dbl>
…
