Functional Programming
…
library(stringr)
diamonds %>%
    filter(str_detect(cut, "Ideal|Premium")) %>% head(2)

## # A tibble: 2 x 10
##   carat cut     color clarity depth table price     x     y     z
##   <dbl> <ord>   <ord> <ord>   <dbl> <dbl> <int> <dbl> <dbl> <dbl>
## 1  0.23 Ideal   E     SI2      61.5    55   326  3.95  3.98  2.43
## 2  0.21 Premium E     SI1      59.8    61   326  3.89  3.84  2.31

diamonds %>%
    filter(cut %in% c("Ideal", "Premium"), z > 4 , color == "E")

## # A tibble: 837 x 10
##    carat cut     color clarity depth table price     x     y     z
##    <dbl> <ord>   <ord> <ord>   <dbl> <dbl> <int> <dbl> <dbl> <dbl>
##  1  1.22 Premium E     I1       60.9    57  2862  6.93  6.88  4.21
##  2  1.25 Ideal   E     I1       60.9    56  3276  6.95  6.91  4.22
##  3  1.05 Premium E     I1       62.2    61  3293  6.51  6.48  4.04
##  4  1.24 Premium E     I1       61.1    62  3528  6.91  6.86  4.21
##  5  1.19 Premium E     I1       60.2    61  3572  6.91  6.87  4.15
##  6  1.13 Ideal   E     I1       62      55  3729  6.66  6.7   4.14
##  7  1.13 Ideal   E     I1       62      55  3797  6.7   6.66  4.14
##  8  1.12 Ideal   E     SI2      60.9    57  3864  6.66  6.6   4.04
##  9  1.2  Premium E     I1       62.3    60  3871  6.78  6.71  4.2 
## 10  1.1  Ideal   E     I1       61.9    56  3872  6.59  6.63  4.09
## #  with 827 more rows
…
multifile_data <- file_list %>%
  map(read_csv)

class(multifile_data)

## [1] "list"

Reading in multiple files

multifile_data[[1]]

## # A tibble: 150 x 5
##    Sepal.Length Sepal.Width Petal.Length Petal.Width Species
##           <dbl>       <dbl>        <dbl>       <dbl> <chr>  
##  1          5.1         3.5          1.4         0.2 setosa 
##  2          4.9         3            1.4         0.2 setosa 
##  3          4.7         3.2          1.3         0.2 setosa 
##  4          4.6         3.1          1.5         0.2 setosa 
##  5          5           3.6          1.4         0.2 setosa 
##  6          5.4         3.9          1.7         0.4 setosa 
##  7          4.6         3.4          1.4         0.3 setosa 
##  8          5           3.4          1.5         0.2 setosa 
##  9          4.4         2.9          1.4         0.2 setosa 
## 10          4.9         3.1          1.5         0.1 setosa 
## #  with 140 more rows

multifile_data[[2]]

## # A tibble: 150 x 1
##    `Sepal.Length:Sepal.Width:Petal.Length:Petal.Width:Species`
##    <chr>                                                      
##  1 5.1:3.5:1.4:0.2:setosa                                     
##  2 4.9:3:1.4:0.2:setosa                                       
##  3 4.7:3.2:1.3:0.2:setosa                                     
##  4 4.6:3.1:1.5:0.2:setosa                                     
##  5 5:3.6:1.4:0.2:setosa                                       
##  6 5.4:3.9:1.7:0.4:setosa                                     
##  7 4.6:3.4:1.4:0.3:setosa                                     
##  8 5:3.4:1.5:0.2:setosa                                       
##  9 4.4:2.9:1.4:0.2:setosa                                     
## 10 4.9:3.1:1.5:0.1:setosa                                     
## #  with 140 more rows

Reading in multiple files

multifile_data[[3]]

## # A tibble: 150 x 5
##    Sepal.Length Sepal.Width Petal.Length Petal.Width Species
##           <dbl>       <dbl>        <dbl>       <dbl> <chr>  
##  1       -999           3.5          1.4         0.2 setosa 
##  2       -999           3            1.4         0.2 setosa 
##  3       -999           3.2          1.3         0.2 setosa 
##  4          4.6         3.1          1.5         0.2 setosa 
##  5          5           3.6          1.4         0.2 setosa 
##  6          5.4         3.9          1.7         0.4 setosa 
##  7          4.6         3.4          1.4         0.3 setosa 
##  8          5           3.4          1.5         0.2 setosa 
##  9          4.4         2.9          1.4         0.2 setosa 
## 10          4.9         3.1          1.5         0.1 setosa 
## #  with 140 more rows
…
